9 t-Test für unabhängige Stichproben – Datenanalyse mit R
…
# Datenformat long erstellen
d_mood_long <- d_mood  |>
  pivot_longer(cols = c(mood_neg, mood_pos),
               names_to = "condition",
               values_to = "performance") |>
  mutate(id= row_number()) |>
  select(id, condition, performance)

# ID und Gruppenvariable als Faktor definieren
d_mood_long <- d_mood_long |> 
  mutate(id = as.factor(id)) |> 
  mutate(condition = as.factor(condition))
print(d_mood_long)

# A tibble: 80 × 3
   id    condition performance
   <fct> <fct>           <int>
 1 1     mood_neg           10
 2 2     mood_pos            5
 3 3     mood_neg           15
 4 4     mood_pos            6
 5 5     mood_neg           12
 6 6     mood_pos            9
 7 7     mood_neg           11
 8 8     mood_pos            9
 9 9     mood_neg           11
10 10    mood_pos            8
# ℹ 70 more rows
…
