10 t-Test für abhängige Stichproben – Datenanalyse mit R
…
# id (Subjekt-ID) und t (Gruppenvariable) als Faktor definieren
d_fear_long <- d_fear_long |> 
  mutate(id = as.factor(id)) |> 
  mutate(timepoint = factor(timepoint, levels = c("pre", "post")))

# Datensatz anzeigen
d_fear_long

# A tibble: 100 × 3
   id    timepoint  fear
   <fct> <fct>     <dbl>
 1 1     pre         5.1
 2 1     post       10  
 3 2     pre         6.3
 4 2     post        7.1
 5 3     pre         2.3
 6 3     post        9.3
 7 4     pre         3.3
 8 4     post        8.9
 9 5     pre         8.3
10 5     post        7  
# ℹ 90 more rows
…
