Übung 9 – Datenanalyse mit R
…
# A tibble: 8 × 5
  id      t1_beginn t2_threemonths t3_sixmonths t4_ninemonths
  <fct>       <dbl>          <dbl>        <dbl>         <dbl>
1 sub-001        18             15           15            12
2 sub-002        15             16           14            11
3 sub-003        17             16           17            10
4 sub-004        16             14           15            15
5 sub-005        16             19           17            18
6 sub-006        19             14           15            10
7 sub-007        15             12           13            12
8 sub-008        14             15           13             1

print(dataset_learn_new)

# A tibble: 32 × 3
   id      condition      examscore
   <fct>   <fct>              <dbl>
 1 sub-001 t1_beginn             18
 2 sub-002 t1_beginn             15
 3 sub-003 t1_beginn             17
 4 sub-004 t1_beginn             16
 5 sub-005 t1_beginn             16
 6 sub-006 t1_beginn             19
 7 sub-007 t1_beginn             15
 8 sub-008 t1_beginn             14
 9 sub-001 t2_threemonths        15
10 sub-002 t2_threemonths        16
# ℹ 22 more rows
…
